{
	"additionalNodes": [],
	"additionalParameters": {
		"root": {
			"height": 108,
			"width": 216
		}
	},
	"inputs": [],
	"outputs": [],
	"properties": {
		"8ePMSu45neIW2DkVUyMvWRV81gNR5tBq": {
			"height": 60,
			"title": "sequence",
			"width": 143,
			"x": 882,
			"y": 365
		},
		"EwRCnFNIDnumZl9BGLWpPXsA1whUJklq": {
			"height": 132,
			"title": "formation.moveCustomGroup",
			"width": 337,
			"x": 873,
			"y": 200
		},
		"TQMRDOQBsOEGFNyc30yrnC4FMHOAbg7x": {
			"height": 74,
			"title": "echo",
			"width": 263,
			"x": 503,
			"y": 279
		},
		"V0IdZWq6Hi6ceOlvp6AWCdxOWbGDrrlX": {
			"height": 98,
			"title": "store",
			"width": 345,
			"x": 429,
			"y": -32
		},
		"Wuwq1Hp8EEyaZk5aa9Axd4LSG57HpEMt": {
			"height": 98,
			"title": "store",
			"width": 433,
			"x": 443,
			"y": -499
		},
		"YRFUgcinqFmKhOxUobb67zPvvWBhHXCa": {
			"height": 98,
			"title": "store",
			"width": 433,
			"x": 449,
			"y": -403
		},
		"c4hoQKYI9EQmFZdQ0cxgNIWnZJbiGlqO": {
			"height": 92,
			"title": "nota_kote_ctp2.UnloadBear",
			"width": 258,
			"x": 1112,
			"y": 454
		},
		"hR0IfFQiHkVdVko5t4eOG3W5cN4G5hUL": {
			"height": 60,
			"title": "sequence",
			"width": 143,
			"x": 240,
			"y": 8
		},
		"lDcrKOSJhmajvqkBiVU2MwWrW9xyTm2I": {
			"height": 132,
			"title": "formation.moveCustomGroup",
			"width": 337,
			"x": 919,
			"y": -76
		},
		"mV6jFvoOW6BCQd5EynKeZqEUgp6O4pOE": {
			"height": 132,
			"title": "formation.moveCustomGroup",
			"width": 337,
			"x": 912,
			"y": 72
		},
		"mWkFmcZKutyRRWrnMP2gvbgn6s1ivDZ7": {
			"height": 98,
			"title": "store",
			"width": 433,
			"x": 456,
			"y": -290
		},
		"tqdCk19ECjTcveQ61Abk5J75fVQhy8ja": {
			"height": 70,
			"title": "parallel",
			"width": 202,
			"x": 550,
			"y": 121
		},
		"tuAlXBecqUThL514ik9jrXYbkdjc48yj": {
			"height": 92,
			"title": "nota_kote_ctp2.LoadBear",
			"width": 317,
			"x": 1116,
			"y": 354
		},
		"ylv87tt6mtRKJ1dtz9QLPfpobGQ2NVyC": {
			"height": 94,
			"title": "store",
			"width": 335,
			"x": 467,
			"y": -154
		}
	},
	"roles": [ {
		"categories": [],
		"name": "Role 0"
	} ],
	"root": {
		"children": [ {
			"children": [],
			"id": "Wuwq1Hp8EEyaZk5aa9Axd4LSG57HpEMt",
			"nodeType": "luaCommand",
			"parameters": [ {
				"name": "var",
				"value": "warriors"
			}, {
				"name": "value",
				"value": "nota_kote_ctp2.UnitFilter(units,\"armwar\")"
			}, {
				"name": "scriptName",
				"value": "store"
			} ],
			"scriptName": "store"
		}, {
			"children": [],
			"id": "YRFUgcinqFmKhOxUobb67zPvvWBhHXCa",
			"nodeType": "luaCommand",
			"parameters": [ {
				"name": "var",
				"value": "bear"
			}, {
				"name": "value",
				"value": "nota_kote_ctp2.UnitFilter(units,\"armthovr\")"
			}, {
				"name": "scriptName",
				"value": "store"
			} ],
			"scriptName": "store"
		}, {
			"children": [],
			"id": "mWkFmcZKutyRRWrnMP2gvbgn6s1ivDZ7",
			"nodeType": "luaCommand",
			"parameters": [ {
				"name": "var",
				"value": "pws"
			}, {
				"name": "value",
				"value": "nota_kote_ctp2.UnitFilter(units,\"armpw\")"
			}, {
				"name": "scriptName",
				"value": "store"
			} ],
			"scriptName": "store"
		}, {
			"children": [],
			"id": "ylv87tt6mtRKJ1dtz9QLPfpobGQ2NVyC",
			"nodeType": "luaCommand",
			"parameters": [ {
				"name": "var",
				"value": "pl"
			}, {
				"name": "value",
				"value": "Sensors.nota_kote_ctp2.GetPlatforms()"
			}, {
				"name": "scriptName",
				"value": "store"
			} ],
			"scriptName": "store"
		}, {
			"children": [],
			"id": "V0IdZWq6Hi6ceOlvp6AWCdxOWbGDrrlX",
			"nodeType": "luaCommand",
			"parameters": [ {
				"name": "var",
				"value": "form"
			}, {
				"name": "value",
				"value": "{Vec3(0,0,0),Vec3(20,0,0),Vec3(-20,0,0)}"
			}, {
				"name": "scriptName",
				"value": "store"
			} ],
			"scriptName": "store"
		}, {
			"children": [ {
				"children": [],
				"id": "lDcrKOSJhmajvqkBiVU2MwWrW9xyTm2I",
				"nodeType": "luaCommand",
				"parameters": [ {
					"name": "groupDefintion",
					"value": "{[pws[1]]=1}"
				}, {
					"name": "position",
					"value": "pl[1]"
				}, {
					"name": "formation",
					"value": "form"
				}, {
					"name": "fight",
					"value": "false"
				}, {
					"name": "scriptName",
					"value": "formation.moveCustomGroup"
				} ],
				"scriptName": "formation.moveCustomGroup"
			}, {
				"children": [],
				"id": "mV6jFvoOW6BCQd5EynKeZqEUgp6O4pOE",
				"nodeType": "luaCommand",
				"parameters": [ {
					"name": "groupDefintion",
					"value": "{[pws[2]]=1}"
				}, {
					"name": "position",
					"value": "pl[2]"
				}, {
					"name": "formation",
					"value": "form"
				}, {
					"name": "fight",
					"value": "false"
				}, {
					"name": "scriptName",
					"value": "formation.moveCustomGroup"
				} ],
				"scriptName": "formation.moveCustomGroup"
			}, {
				"children": [],
				"id": "EwRCnFNIDnumZl9BGLWpPXsA1whUJklq",
				"nodeType": "luaCommand",
				"parameters": [ {
					"name": "groupDefintion",
					"value": "{[pws[3]]=1}"
				}, {
					"name": "position",
					"value": "pl[3]"
				}, {
					"name": "formation",
					"value": "form"
				}, {
					"name": "fight",
					"value": "false"
				}, {
					"name": "scriptName",
					"value": "formation.moveCustomGroup"
				} ],
				"scriptName": "formation.moveCustomGroup"
			}, {
				"children": [ {
					"children": [],
					"id": "tuAlXBecqUThL514ik9jrXYbkdjc48yj",
					"nodeType": "luaCommand",
					"parameters": [ {
						"name": "theBear",
						"value": "bear[1]"
					}, {
						"name": "unitList",
						"value": "{warriors[1],warriors[2],warriors[3]}"
					}, {
						"name": "scriptName",
						"value": "nota_kote_ctp2.LoadBear"
					} ],
					"scriptName": "nota_kote_ctp2.LoadBear"
				}, {
					"children": [],
					"id": "c4hoQKYI9EQmFZdQ0cxgNIWnZJbiGlqO",
					"nodeType": "luaCommand",
					"parameters": [ {
						"name": "theBear",
						"value": "bear[1]"
					}, {
						"name": "unloadPos",
						"value": "pl[4]"
					}, {
						"name": "scriptName",
						"value": "nota_kote_ctp2.UnloadBear"
					} ],
					"scriptName": "nota_kote_ctp2.UnloadBear"
				} ],
				"id": "8ePMSu45neIW2DkVUyMvWRV81gNR5tBq",
				"nodeType": "sequence",
				"parameters": []
			} ],
			"id": "tqdCk19ECjTcveQ61Abk5J75fVQhy8ja",
			"nodeType": "parallel",
			"parameters": [ {
				"name": "mode",
				"value": "all-success"
			} ]
		}, {
			"children": [],
			"id": "TQMRDOQBsOEGFNyc30yrnC4FMHOAbg7x",
			"nodeType": "luaCommand",
			"parameters": [ {
				"name": "msg",
				"value": "nota_kote_ctp2.MissionEnd()"
			}, {
				"name": "scriptName",
				"value": "echo"
			} ],
			"scriptName": "echo"
		} ],
		"id": "hR0IfFQiHkVdVko5t4eOG3W5cN4G5hUL",
		"nodeType": "sequence",
		"parameters": []
	}
}